<svg xmlns="http://www.w3.org/2000/svg" xmlns:xlink="http://www.w3.org/1999/xlink" width="550" height="498" viewBox="0 0 550 498">
  <defs>
    <clipPath id="clip-path">
      <rect id="Retângulo_127" data-name="Retângulo 127" width="550" height="498" transform="translate(0 -0.269)" fill="#fff"/>
    </clipPath>
  </defs>
  <g id="Grupo_3101" data-name="Grupo 3101" transform="translate(-103 -452)">
    <g id="Grupo_180" data-name="Grupo 180" transform="translate(103 452.269)">
      <path id="Caminho_3556" data-name="Caminho 3556" d="M0,0H550V498H0Z" transform="translate(0 -0.269)" fill="#fff"/>
    </g>
    <g id="Grupo_de_máscara_10" data-name="Grupo de máscara 10" transform="translate(103 452.269)" clip-path="url(#clip-path)">
      <g id="Grupo_1033" data-name="Grupo 1033" transform="translate(18.254 68.477)">
        <path id="Caminho_1705" data-name="Caminho 1705" d="M489.949,359.482c9.362,0,18.787-.012,28.19-.026l3.782-26.7a1.931,1.931,0,0,1,3.824.541L522.04,359.45h.394c2.107-2.056,4.292-4.051,6.2-6.292a83.141,83.141,0,0,0,8.773-12.666c1.04-1.824,3.831-.195,2.814,1.643-3.116,5.626-7.174,12.144-12.067,17.306,21.408-.039,42.534-.079,62.364-.025-5.457-31.771-10.617-59.492-13.664-75.52-15.52,4.251-29.016,6.643-36.6,6.643-1.62.2-2.81-1.562-3.687-4.453-19,.443-48.989,1.283-70.662,2.522-33.8,1.93-42.863,6.007-45.383,5.794a1.306,1.306,0,0,1-.587-.26c-1.8,16.84-4.188,39.327-6.944,65.388C436.383,359.445,462.395,359.482,489.949,359.482ZM428.2,343.768c-1.963,1.3-3.666-1.775-1.819-3.114,10.914-7.912,18.434-18.682,25.77-29.812,1.218-1.847,4.2-.13,2.984,1.745C447.668,324.086,439.856,336.074,428.2,343.768Z" transform="translate(-238.922 74.143)" fill="#6168aa"/>
        <path id="Caminho_1706" data-name="Caminho 1706" d="M464.272,304.257a1.93,1.93,0,0,0-2.183,1.64l-3.782,26.7,3.9-.007,3.705-26.156A1.928,1.928,0,0,0,464.272,304.257Z" transform="translate(-179.09 101)" fill="#333a74"/>
        <path id="Caminho_1707" data-name="Caminho 1707" d="M475.128,308.742a83.142,83.142,0,0,1-8.773,12.666c-1.9,2.241-4.091,4.237-6.2,6.292l5.717-.009c4.893-5.162,8.951-11.68,12.067-17.306C478.958,308.547,476.167,306.918,475.128,308.742Z" transform="translate(-176.646 105.893)" fill="#333a74"/>
        <path id="Caminho_1708" data-name="Caminho 1708" d="M444.982,295.96c-7.337,11.13-14.856,21.9-25.77,29.812-1.847,1.339-.144,4.411,1.819,3.114,11.652-7.694,19.464-19.682,26.935-31.181C449.184,295.83,446.2,294.113,444.982,295.96Z" transform="translate(-231.749 89.026)" fill="#333a74"/>
        <path id="Caminho_1709" data-name="Caminho 1709" d="M432.234,202.019c17.216,26.276,35.62,29.049,37.822,29.292-4.309-3.452-7.123-9.429-8.933-15.752-11.824-7.128-24.214-19.87-33.234-34.3-6.23-9.968-8.833-21.114-9.9-27.787-.1,4.731-.367,9.661-.71,14.71C421.42,180.6,426.13,192.7,432.234,202.019Z" transform="translate(-233.258 -98.042)" fill="#ea4550"/>
        <path id="Caminho_1710" data-name="Caminho 1710" d="M424.78,162.533c-1.93-12.552-3.039-14.712-7.724-20.276a104.983,104.983,0,0,0-8.522-8.42c-.346-.3-.7-.615-1.056-.923a4.979,4.979,0,0,1-.443.882c-.058.088-.139.16-.2.246a21.853,21.853,0,0,1,3.2,6.077c5.877,7.51,10.381,21.337,15.137,36.62A76.32,76.32,0,0,0,424.78,162.533Z" transform="translate(-247.048 -125.182)" fill="#ea4550"/>
        <path id="Caminho_1711" data-name="Caminho 1711" d="M528.488,247.36c-3.9-5.03-9.341-11.624-16.158-18.842-.462,2.9-.775,5.657-1.012,8.3C515.215,241.288,521.628,247.17,528.488,247.36Z" transform="translate(-109.103 1.035)" fill="#6c4e4e"/>
        <path id="Caminho_1712" data-name="Caminho 1712" d="M515,244.97c.538-.52,1.06-.991,1.575-1.445a28.927,28.927,0,0,1-5.123-4.218,63.6,63.6,0,0,1-.965,8.183l1.759-.986C513.254,245.932,514.152,245.431,515,244.97Z" transform="translate(-110.206 15.277)" fill="#6c4e4e"/>
        <path id="Caminho_1713" data-name="Caminho 1713" d="M440.165,202.681c0-3.647.03-7.733.206-10.845.065-1.153-.107-3.225.557-4.246.555-.856,2.153-1.575,2.949-2.265a26.36,26.36,0,0,0,2.613-2.6c1.677-1.921,3.248-4.2,5.691-4.94a12.744,12.744,0,0,1,4.562-.137c3.153.22,6.548-.037,9.07-1.944,1.146-.865,2.19-2.1,3.624-2.186,1.763-.109,6.954,6,8.608,7.573a38.982,38.982,0,0,0,5.241,4.153,35.845,35.845,0,0,0,14.552,5.724s.137,4.949-.051,11.722a5.592,5.592,0,0,1,4.286.842c1.93-7.19,7.875-30.808,4-35.45-2.615-3.139-7.805-4.568-10.712-5.149a11.718,11.718,0,0,1,.169,3.531,1.376,1.376,0,0,1-1.355,1.16,1.384,1.384,0,0,1-1.36-1.58,11.024,11.024,0,0,0-.6-4.457c-4.292-4.03-21.388-19.023-37.406-18.223-18.309.914-13.731,16.478-13.731,16.478s-8.239,3.661-10.07,9.153c-1.566,4.7,4.23,27.464,5.942,33.956A5.927,5.927,0,0,1,440.165,202.681Z" transform="translate(-215.475 -111.428)" fill="#812a2e"/>
        <path id="Caminho_1714" data-name="Caminho 1714" d="M440.264,187.174l0,0c-.023.39-.056.775-.084,1.165C440.2,187.947,440.241,187.566,440.264,187.174Z" transform="translate(-203.026 -53.55)" fill="#f4a07f"/>
        <path id="Caminho_1715" data-name="Caminho 1715" d="M486.852,213.535A85.761,85.761,0,0,1,488.8,198.1c-5.807,4.392-16.485,8.94-34.7,7.763a67.331,67.331,0,0,1-22.664-5.531c1.32,2.3,3.529,6.142,6.411,10.708a91.86,91.86,0,0,0,30.255,4.179A140.744,140.744,0,0,0,486.852,213.535Z" transform="translate(-214.567 -39.124)" fill="#f4a07f"/>
        <path id="Caminho_1716" data-name="Caminho 1716" d="M444.936,197.94c.009-.051.012-.109.021-.162-.139.805-.292,1.582-.469,2.283-.513,2.026-1.172,3.548-2.014,4.216a19.36,19.36,0,0,1-2.132,1.425c-1.239.738-2.775,1.555-4.452,2.394,25.1,8.958,42.773-7.056,46.028-10.8-.021-.111-.065-.23-.079-.339-.165-1.327-.805-4.64-.912-6.413-.1-1.594-.018-3.033.007-4.6a29.78,29.78,0,0,1-7.369,4.5C459.554,205.393,448.419,199.885,444.936,197.94Z" transform="translate(-208.684 -55.17)" fill="#f4a07f"/>
        <path id="Caminho_1717" data-name="Caminho 1717" d="M440,190.37c.056-.466.114-.921.16-1.4C440.116,189.451,440.058,189.906,440,190.37Z" transform="translate(-203.256 -51.172)" fill="#f4a07f"/>
        <path id="Caminho_1718" data-name="Caminho 1718" d="M472.01,204.569a2.667,2.667,0,0,1,.942-1.125c-2.761-1.626-6.262-3.787-9.726-6.193a65.238,65.238,0,0,0-2.566,13.555c-.019.387,0,.759.009,1.13a89.971,89.971,0,0,0,8.884-2.993A28.414,28.414,0,0,0,472.01,204.569Z" transform="translate(-175.995 -40.244)" fill="#f4a07f"/>
        <path id="Caminho_1719" data-name="Caminho 1719" d="M440.443,191.349c-.046.476-.1.93-.16,1.4-.135,1.167-.283,2.32-.473,3.411-.009.053-.012.111-.021.162,3.483,1.944,14.617,7.452,28.629-7.5a31.715,31.715,0,0,1-24.626.109,13.5,13.5,0,0,1-3.016-1.756c-.023.392-.06.773-.088,1.162C440.62,189.347,440.541,190.356,440.443,191.349Z" transform="translate(-203.537 -53.548)" fill="#1a1a1a"/>
        <path id="Caminho_1720" data-name="Caminho 1720" d="M446.913,227.523c.146.116.285.241.436.353l0,0a13.5,13.5,0,0,0,3.016,1.756A31.715,31.715,0,0,0,475,229.525a29.78,29.78,0,0,0,7.369-4.5,24.7,24.7,0,0,0,3.422-3.448c2.355-2.944,3.893-8.515,4.9-14.838l-.037,0c-5.357,0,1.07-21.056,1.07-21.056a5.579,5.579,0,0,1,.71-.179c.188-6.773.051-11.722.051-11.722a35.845,35.845,0,0,1-14.552-5.724,38.985,38.985,0,0,1-5.241-4.153c-1.654-1.578-6.845-7.682-8.608-7.573-1.434.088-2.478,1.32-3.624,2.186-2.522,1.907-5.916,2.165-9.07,1.944a12.744,12.744,0,0,0-4.562.137c-2.443.735-4.014,3.019-5.691,4.94a26.358,26.358,0,0,1-2.613,2.6c-.8.689-2.395,1.408-2.949,2.265-.664,1.021-.492,3.093-.557,4.246-.176,3.111-.2,7.2-.206,10.845a5.292,5.292,0,0,1,.747.186s6.32,20.729,1.169,21.028c.35,1.677.777,3.371,1.258,5.051C439.79,218.094,442.6,224.071,446.913,227.523ZM445.377,189.5a2.652,2.652,0,0,1,3.863-.487,2.289,2.289,0,0,1,.283.3,1.843,1.843,0,0,1,.459,1.258,1.339,1.339,0,0,1,0,.167c0,.016,0,.033,0,.051a5.372,5.372,0,0,1-.735,2.4,2.419,2.419,0,0,1-3.868-.019A3.052,3.052,0,0,1,445.377,189.5Zm24.756,21.777c1.091-.06,1.042,1,.821,1.787-2.213,7.919-10.988,7.418-14.394,4.434-2.4-2.1-4.125-5.77-2.826-6.06C453.806,211.423,468.143,211.391,470.133,211.279Zm-12.044-6.645a1.45,1.45,0,0,1,1.608-1.227c.754.107,1.51.216,2.265.325a1.43,1.43,0,1,1-.378,2.835l-2.264-.325A1.455,1.455,0,0,1,458.089,204.634Zm17.529-26.947a25.85,25.85,0,0,1,8.673,4.726,1.387,1.387,0,1,1-1.8,2.074,22.889,22.889,0,0,0-7.36-4.014,1.783,1.783,0,0,1-.617-.323,1.616,1.616,0,0,1-.622-1.5A1.3,1.3,0,0,1,475.618,177.688Zm-34.084,4.726a25.827,25.827,0,0,1,8.673-4.726,1.3,1.3,0,0,1,1.726.961,1.618,1.618,0,0,1-.624,1.5,1.752,1.752,0,0,1-.615.323,22.89,22.89,0,0,0-7.36,4.014,1.387,1.387,0,1,1-1.8-2.074Zm35.2,5.687c.074-.007.148-.009.22-.009.028,0,.053-.009.083-.009s.047.012.074.014c2.258.123,2.886,2.842,1.807,4.406a1.757,1.757,0,0,1-.719.937,2.376,2.376,0,0,1-1.246.32.453.453,0,0,1-.118.046,1.907,1.907,0,0,1-2.193-1.081,2.848,2.848,0,0,1,.348-3.947A2.3,2.3,0,0,1,476.732,188.1Z" transform="translate(-210.115 -94.254)" fill="#f4a07f"/>
        <path id="Caminho_1721" data-name="Caminho 1721" d="M461.867,168.977a5.587,5.587,0,0,0-.71.179s-6.427,21.056-1.07,21.056l.037,0c5.478-.056,10.309-11.91,8.2-17.39a6.324,6.324,0,0,0-2.174-3A5.592,5.592,0,0,0,461.867,168.977ZM461,182.887s0-7.323.914-7.323,1.831,2.745,1.831,3.661S461,182.887,461,182.887Z" transform="translate(-179.554 -77.717)" fill="#f4a07f"/>
        <path id="Caminho_1722" data-name="Caminho 1722" d="M452.339,174.664a1.907,1.907,0,0,0,2.193,1.081.453.453,0,0,0,.118-.046,2.376,2.376,0,0,0,1.246-.32,1.758,1.758,0,0,0,.719-.937c1.079-1.564.45-4.283-1.807-4.406-.028,0-.046-.012-.074-.014s-.056.007-.083.009c-.072,0-.146,0-.22.009a2.3,2.3,0,0,0-1.742.677A2.848,2.848,0,0,0,452.339,174.664Z" transform="translate(-187.813 -76.193)" fill="#1a1a1a"/>
        <path id="Caminho_1723" data-name="Caminho 1723" d="M443.576,174.947a5.372,5.372,0,0,0,.736-2.4c0-.019,0-.035,0-.051a1.339,1.339,0,0,0,0-.167,1.843,1.843,0,0,0-.459-1.258,2.289,2.289,0,0,0-.283-.3,2.652,2.652,0,0,0-3.863.487,3.052,3.052,0,0,0,0,3.664A2.419,2.419,0,0,0,443.576,174.947Z" transform="translate(-204.449 -76.016)" fill="#1a1a1a"/>
        <path id="Caminho_1724" data-name="Caminho 1724" d="M448.342,179.794a1.43,1.43,0,1,0,.378-2.835c-.754-.109-1.51-.218-2.265-.325a1.43,1.43,0,1,0-.378,2.835Z" transform="translate(-196.874 -67.48)" fill="#d45c48"/>
        <path id="Caminho_1725" data-name="Caminho 1725" d="M439.85,172.379a22.89,22.89,0,0,1,7.36-4.014,1.752,1.752,0,0,0,.615-.322,1.618,1.618,0,0,0,.624-1.5,1.3,1.3,0,0,0-1.726-.961,25.828,25.828,0,0,0-8.673,4.726,1.387,1.387,0,1,0,1.8,2.074Z" transform="translate(-206.63 -82.145)" fill="#842a2e"/>
        <path id="Caminho_1726" data-name="Caminho 1726" d="M452.9,168.365a22.889,22.889,0,0,1,7.36,4.014,1.387,1.387,0,1,0,1.8-2.074,25.85,25.85,0,0,0-8.673-4.726,1.3,1.3,0,0,0-1.726.961,1.616,1.616,0,0,0,.622,1.5A1.783,1.783,0,0,0,452.9,168.365Z" transform="translate(-187.887 -82.145)" fill="#842a2e"/>
        <path id="Caminho_1727" data-name="Caminho 1727" d="M463.5,163.942a1.37,1.37,0,0,0,1.144,1.562,1.356,1.356,0,0,0,.216.019,1.376,1.376,0,0,0,1.355-1.16,11.718,11.718,0,0,0-.169-3.531c-.647-3.62-2.986-9.552-10.879-15.622a1.372,1.372,0,1,0-1.673,2.176c5.988,4.608,8.427,8.993,9.406,12.1A11.024,11.024,0,0,1,463.5,163.942Z" transform="translate(-186.155 -109.327)" fill="#812a2e"/>
        <path id="Caminho_1728" data-name="Caminho 1728" d="M446.044,186.241c3.406,2.984,12.181,3.485,14.394-4.434.22-.789.269-1.847-.821-1.787-1.991.111-16.327.144-16.4.16C441.918,180.471,443.642,184.139,446.044,186.241Z" transform="translate(-199.599 -62.995)" fill="#fff"/>
        <path id="Caminho_1729" data-name="Caminho 1729" d="M460.183,171.753c-.914,0-.914,7.323-.914,7.323s2.745-2.745,2.745-3.661S461.1,171.753,460.183,171.753Z" transform="translate(-177.82 -73.906)" fill="#d45c48"/>
        <path id="Caminho_1730" data-name="Caminho 1730" d="M439.494,169.157a5.3,5.3,0,0,0-.747-.186,5.927,5.927,0,0,0-3.211.269,5.8,5.8,0,0,0-3.211,3.578c-2.111,5.492,2.747,17.395,8.239,17.395.039,0,.063-.026.1-.028C445.815,189.886,439.494,169.157,439.494,169.157Zm-2.592,10.07c0-.916.914-3.661,1.831-3.661s.914,7.323.914,7.323S436.9,180.143,436.9,179.227Z" transform="translate(-214.057 -77.718)" fill="#f4a07f"/>
        <path id="Caminho_1731" data-name="Caminho 1731" d="M435.842,171.753c-.916,0-1.831,2.745-1.831,3.661s2.745,3.661,2.745,3.661S436.756,171.753,435.842,171.753Z" transform="translate(-211.165 -73.906)" fill="#d45c48"/>
        <path id="Caminho_1732" data-name="Caminho 1732" d="M460.659,205.283a11.856,11.856,0,0,0,1.824,5.977,87.936,87.936,0,0,0,7.06-8.97A89.974,89.974,0,0,1,460.659,205.283Z" transform="translate(-175.984 -33.591)" fill="#fff"/>
        <path id="Caminho_1733" data-name="Caminho 1733" d="M483.2,206.173a140.742,140.742,0,0,1-18.752,1.682,91.86,91.86,0,0,1-30.255-4.179c7.582,12.014,19.8,28.944,32.668,35.378,0,0,10.285-8.842,20.541-19.056a25.811,25.811,0,0,1-2.116-2.738C483.747,214.938,483.118,211.038,483.2,206.173Z" transform="translate(-210.92 -31.761)" fill="#fff"/>
        <path id="Caminho_1734" data-name="Caminho 1734" d="M499.148,210.161c-12.937-7.608-23.71-12.385-27.244-9.852a2.666,2.666,0,0,0-.942,1.125,28.414,28.414,0,0,1-2.457,4.374,87.926,87.926,0,0,1-7.06,8.97c3.415,5.432,10.914,8.026,16.622,9.241C485.359,220.595,492.97,216.873,499.148,210.161Z" transform="translate(-174.947 -37.109)" fill="#7f5454"/>
        <path id="Caminho_1735" data-name="Caminho 1735" d="M553.133,465.585c21.673-1.239,51.664-2.079,70.662-2.522a52.545,52.545,0,0,1-1.657-9.761c-3.183-1.917-9.968-6.007-18.037-10.912-7.295-.6-8.316-2.281-9.93-3.357-2.9-1.933-5.794-1.933-7.726-4.828s-3.861-.965-7.726-1.933c-1.907-.476-3.756-1.323-4.459-3.315a11.611,11.611,0,0,0-.761-2.292c-.668-1.088-2.016-1.5-3.227-1.907a29.263,29.263,0,0,1-3.77-1.575c-1.717-.861-7.787-6.1-5.144-7.283.056-.026.142-.037.206-.058-3.137-2.107-5.051-3.522-5.051-3.844,0-1.93,18.346-28.968,21.244-28,.814.271,5.36,3.014,11.471,6.814a1.868,1.868,0,0,1,1.081-1.986c4.638-1.856,6.622.763,14.478,8.68a40.754,40.754,0,0,0,14.522-2.485,59.886,59.886,0,0,0-2.367-12.241c-3.028-9.912-9.042-23.033-11.668-33.058a60.421,60.421,0,0,1-1.313-25.093c-.592-6.571.158-12.118,1.8-15.944a25.955,25.955,0,0,1,7.963-10.255,25.75,25.75,0,0,1-11.077-7.353c-10.255,10.213-20.541,19.056-20.541,19.056-12.868-6.434-25.086-23.364-32.668-35.378-2.882-4.566-5.091-8.411-6.411-10.708a67.393,67.393,0,0,1-7.436-3.787c-11.179-1-33.627,1.787-44.733,4.007-10.179,2.037-60.244,3.4-73.847-.984a265.145,265.145,0,0,0-7.3,27.434,1.931,1.931,0,1,1-3.787-.756,271.827,271.827,0,0,1,7.722-28.831,1.258,1.258,0,0,1-.035-.724c1.933-7.726,19.311-55.04,23.174-65.659a3.728,3.728,0,0,0,.223-1.295c-1.977,5.357-12.61-1.6-21.262-8.457l-.007.019s-25.476-18.52-24.905-29.016c0,0,1.378-2.71,3.072-6.1l-.088-.046s-49.026,97.054-46.831,140.492c2.241,44.395,135.258,52.135,154.172,53.01-1.842-13-2.988-26.483-3.053-27.26a1.931,1.931,0,0,1,3.849-.325c.021.239,1.852,21.787,4.564,36.634a127.864,127.864,0,0,1,4.617,22.912c1.93,18.346-4.828,43.45-9.657,61.8-4.506,17.118,2.657,31.931,5.689,34.019a1.305,1.305,0,0,0,.587.26C510.27,471.592,519.338,467.515,553.133,465.585ZM418.588,210.746a124.939,124.939,0,0,1,4.875-12.682c.441-1,1.891-.132,1.466.856-1.729,4.035-3.213,8.146-4.652,12.29C419.91,212.264,418.247,211.83,418.588,210.746Zm-5.954-20.4c.339-1.028,1.954-.6,1.629.448a46.265,46.265,0,0,1-2.413,7.248c-.429.847-1.534.2-1.413-.594A45.4,45.4,0,0,1,412.634,190.345ZM395.827,195.9c1.329-2.954,3.079-5.712,4.39-8.694.471-1.07,2.014-.142,1.564.914a41.437,41.437,0,0,1-4.45,8.659A.871.871,0,0,1,395.827,195.9Zm-2.492-24.831c.441-1.049,2.176-.594,1.733.476-1.7,4.077-3.13,8.48-5.362,12.3a.7.7,0,0,1-1.276-.538C389.562,179.113,391.652,175.073,393.335,171.073Zm-13.866,13.392c-1.058-2.1,2.053-3.947,3.165-1.852a74.489,74.489,0,0,0,16.775,21.406c7.063,6.16,14.954,10.026,23.429,13.808,1.659.738.464,3.3-1.209,2.868C403.532,215.953,387.729,200.844,379.469,184.465ZM494.129,333.788a198.5,198.5,0,0,1-10.9-65.65.857.857,0,0,1,1.712,0,208.2,208.2,0,0,0,10.814,65.2C496.1,334.378,494.486,334.807,494.129,333.788Zm9.541,118.634c-.979.682-1.84-.884-.921-1.575,22.114-16.68,52.313-8.4,77.62-13.125,1.042-.195,1.492,1.4.441,1.6C555.219,444.3,526.421,436.573,503.669,452.422Z" transform="translate(-326.155 -102.834)" fill="#7f5454"/>
        <path id="Caminho_1736" data-name="Caminho 1736" d="M401.114,176.434a1.935,1.935,0,0,0-2.55.979c-.142.318-10.33,23.36-18.478,48.824a271.823,271.823,0,0,0-7.722,28.831,1.931,1.931,0,0,0,3.787.756,265.157,265.157,0,0,1,7.3-27.434c8.121-25.606,18.5-49.088,18.643-49.406A1.931,1.931,0,0,0,401.114,176.434Z" transform="translate(-292.6 -67.946)" fill="#fff"/>
        <path id="Caminho_1737" data-name="Caminho 1737" d="M413.84,220.6a1.932,1.932,0,0,0-1.763,2.086c.065.777,1.211,14.258,3.053,27.26.715,5.049,1.534,10.026,2.436,14.162,2.668,12.218,5.339,27.81,2.285,40.021a1.932,1.932,0,0,0,3.749.937c3.246-12.988.5-29.153-2.26-41.784-.292-1.339-.578-2.78-.852-4.288-2.712-14.847-4.543-36.395-4.564-36.634A1.938,1.938,0,0,0,413.84,220.6Z" transform="translate(-240.131 -9.432)" fill="#fff"/>
        <path id="Caminho_1738" data-name="Caminho 1738" d="M492.359,275.527c1.051-.2.6-1.8-.441-1.6-25.306,4.729-55.506-3.554-77.62,13.125-.919.691-.058,2.258.921,1.575C437.972,272.778,466.77,280.509,492.359,275.527Z" transform="translate(-237.706 60.961)" fill="#4a3333"/>
        <path id="Caminho_1739" data-name="Caminho 1739" d="M404.435,199.7c-8.476-3.782-16.367-7.647-23.429-13.807a74.49,74.49,0,0,1-16.775-21.406c-1.111-2.1-4.223-.246-3.165,1.852,8.26,16.378,24.063,31.487,42.16,36.23C404.9,203.008,406.094,200.442,404.435,199.7Z" transform="translate(-307.752 -84.711)" fill="#4a3333"/>
        <path id="Caminho_1740" data-name="Caminho 1740" d="M379.518,184.024c1.439-4.144,2.923-8.255,4.652-12.29.425-.988-1.026-1.856-1.466-.856a124.931,124.931,0,0,0-4.875,12.682C377.488,184.643,379.152,185.077,379.518,184.024Z" transform="translate(-285.397 -75.648)" fill="#4a3333"/>
        <path id="Caminho_1741" data-name="Caminho 1741" d="M375.708,175.328a46.265,46.265,0,0,0,2.413-7.248c.325-1.044-1.29-1.476-1.629-.448a45.4,45.4,0,0,0-2.2,7.1C374.175,175.532,375.279,176.175,375.708,175.328Z" transform="translate(-290.014 -80.121)" fill="#4a3333"/>
        <path id="Caminho_1742" data-name="Caminho 1742" d="M366.1,172.1c2.232-3.817,3.666-8.22,5.362-12.3.443-1.07-1.292-1.524-1.733-.476-1.682,4-3.773,8.039-4.9,12.234A.7.7,0,0,0,366.1,172.1Z" transform="translate(-302.545 -91.091)" fill="#4a3333"/>
        <path id="Caminho_1743" data-name="Caminho 1743" d="M369.553,175.79a41.438,41.438,0,0,0,4.45-8.659c.45-1.056-1.093-1.984-1.564-.914-1.311,2.981-3.06,5.74-4.39,8.694A.871.871,0,0,0,369.553,175.79Z" transform="translate(-298.378 -81.841)" fill="#4a3333"/>
        <path id="Caminho_1744" data-name="Caminho 1744" d="M497.239,254.291a39.256,39.256,0,0,0-13.121-1.023c-.589.058-1.188.135-1.768.232l-.028.009c-4.144.675-7.9,2.193-9.617,5.281a13.077,13.077,0,0,0-1.028,8.237c6.807-2.056,20.13-6.179,34.731-11.241A68.48,68.48,0,0,1,497.239,254.291Z" transform="translate(-161.722 33.473)" fill="#4a3333"/>
        <path id="Caminho_1745" data-name="Caminho 1745" d="M479.6,270.938l-.028-.058a31.691,31.691,0,0,0-3.882-5.977c-11.522-14.021-16.555-28.408-17.576-39.731a60.421,60.421,0,0,0,1.313,25.093c2.626,10.026,8.64,23.146,11.668,33.058a59.88,59.88,0,0,1,2.367,12.241,20.915,20.915,0,0,0,6.244-3.78C485.733,286.367,482.74,277.193,479.6,270.938Z" transform="translate(-180.311 -3.382)" fill="#4a3333"/>
        <path id="Caminho_1746" data-name="Caminho 1746" d="M396.525,140.841a4.089,4.089,0,0,1,.209,4.821,13.414,13.414,0,0,1-1.422,1.313,1.677,1.677,0,0,1-.847,2.023,16.035,16.035,0,0,0,1.116,2.671,4.224,4.224,0,0,1-1.466,4.747,5.724,5.724,0,0,0-1.132.856c-1.482,1.766,1.311,5.123-.515,6.531a4.452,4.452,0,0,1-2.1.555,1.674,1.674,0,0,1-1.638,1.276,16.839,16.839,0,0,0-.174,2.35,21.51,21.51,0,0,0,4.548,5.893c9.647,8.766,25.327,7.22,35.023-3.448,6.889-7.575,8.884-17.7,6.028-26.086a21.854,21.854,0,0,0-3.2-6.077,3.2,3.2,0,0,1-1.195,1.039,33.9,33.9,0,0,0-8.172-6.1,4.539,4.539,0,0,1,.907-1.71,21.22,21.22,0,0,0-2.056-.791c.309,5.58.568,11.162.7,16.761.086,3.872.424,7.91-3.179,10.285a1.969,1.969,0,0,1-2.645-.7c-4.258-6.652-4.538-14.763-4.819-22.432-.058-1.582-.172-3.262-.172-4.914a27.511,27.511,0,0,0-16.814,8.664A9.029,9.029,0,0,1,396.525,140.841Zm6.791,17.044a1.889,1.889,0,0,1,1.4-1.856c3.244-.536,3.364,5.392,3.385,5.794.109,2.118-3.135,2.6-3.747.647a1.544,1.544,0,0,1-.206-.278A7.981,7.981,0,0,1,403.316,157.885Z" transform="translate(-271.173 -129.41)" fill="#008cff"/>
        <path id="Caminho_1747" data-name="Caminho 1747" d="M382.219,159.286c-1.958,4.369-4.028,8.7-5.643,13.234,8.652,6.854,19.285,13.814,21.262,8.457C397.936,176.068,390.732,167.581,382.219,159.286Z" transform="translate(-286.991 -90.365)" fill="#1a1a1a"/>
        <path id="Caminho_1748" data-name="Caminho 1748" d="M382.433,154.275c-.977,2.432-1.7,4.926-2.666,7.529A69.618,69.618,0,0,0,382.433,154.275Z" transform="translate(-282.778 -96.98)" fill="#f4a07f"/>
        <path id="Caminho_1749" data-name="Caminho 1749" d="M390.749,211.535l.007-.019c1.615-4.538,3.684-8.866,5.643-13.234q.86-1.921,1.666-3.863c-1.146-4.515-.914-16.685-3.935-20.325a16.215,16.215,0,0,0,6.019-6.169,42.4,42.4,0,0,1,4.733-.1c1.961.079,4.868,2.216,9.151,3.241h0a12.33,12.33,0,0,0,2.163-.35,3.623,3.623,0,0,0,2.325-2.425,3.529,3.529,0,0,0,.035-.36,16.839,16.839,0,0,1,.174-2.35,1.665,1.665,0,0,1-.766-.22c-4.684-2.661-10.81-6.478-16.272-6.9-3.515-.271-5.956,3.03-9.807,2.411a1.41,1.41,0,0,1-.334-2.552c3.578-1.972,7.318-4.436,11.487-3.418,5.835,1.427,11.557,4.432,16.617,7.564a1.563,1.563,0,0,1,.712,1.838,4.452,4.452,0,0,0,2.1-.555c1.826-1.408-.967-4.766.515-6.531a5.723,5.723,0,0,1,1.132-.856,4.224,4.224,0,0,0,1.466-4.747,16.04,16.04,0,0,1-1.116-2.671,1.649,1.649,0,0,1-1.536.058c-6.23-2.884-12.325-6.165-19.028-7.817-2.234-.55-1.274-3.847.942-3.418,7.023,1.357,13.443,5.181,19.754,8.383a1.431,1.431,0,0,1,.715.77,13.414,13.414,0,0,0,1.422-1.313,4.089,4.089,0,0,0-.209-4.821,9.029,9.029,0,0,0-3.016-2.466c-.369-.207-.742-.4-1.114-.589a86.574,86.574,0,0,0-20.7-7.613,1.833,1.833,0,0,0-2.088-.1,6.52,6.52,0,0,0-1.629,1.517,20.082,20.082,0,0,1-1.592,1.613c-.722.654-1.582,1.478-2.485,1.109q-2.2.313-4.408.622a3.846,3.846,0,0,0-1.357.369,4.6,4.6,0,0,0-1.594,2.483c-1.07,2.58-3.046,5.624-5.8,6.079-1.682.276-2.58,2.169-2.763,3.863s.051,3.48-.615,5.046A29.07,29.07,0,0,0,375.8,155.7a7.118,7.118,0,0,0-.213,1.615c-.123,2.188.216,3.944-.478,6.023-.573,1.717-3.717,8.135-6.188,13.081-1.694,3.394-3.072,6.1-3.072,6.1C365.274,193.016,390.749,211.535,390.749,211.535Zm.592-67.311c11.861-5.3,21.23,5.111,30.912,10.239,1.942,1.028.232,3.9-1.712,2.93-8.613-4.288-17.332-14.139-27.775-9.791C390.849,148.4,389.429,145.078,391.341,144.224Z" transform="translate(-301.171 -129.361)" fill="#f4a07f"/>
        <path id="Caminho_1750" data-name="Caminho 1750" d="M404.374,142.382a1.43,1.43,0,0,0-.715-.77c-6.311-3.2-12.731-7.026-19.754-8.383-2.216-.429-3.176,2.868-.942,3.418,6.7,1.652,12.8,4.933,19.028,7.817a1.649,1.649,0,0,0,1.536-.058A1.677,1.677,0,0,0,404.374,142.382Z" transform="translate(-280.237 -124.816)" fill="#dc815c"/>
        <path id="Caminho_1751" data-name="Caminho 1751" d="M378.768,140.2c10.443-4.348,19.162,5.5,27.775,9.791,1.944.968,3.654-1.9,1.712-2.93-9.682-5.128-19.051-15.541-30.912-10.239C375.432,137.674,376.852,141,378.768,140.2Z" transform="translate(-287.173 -121.957)" fill="#dc815c"/>
        <path id="Caminho_1752" data-name="Caminho 1752" d="M406.113,150.129a1.563,1.563,0,0,0-.712-1.838c-5.06-3.132-10.782-6.137-16.617-7.564-4.169-1.019-7.91,1.445-11.487,3.418a1.41,1.41,0,0,0,.334,2.552c3.851.62,6.292-2.682,9.807-2.411,5.462.42,11.587,4.237,16.272,6.9a1.623,1.623,0,0,0,2.4-1.056Z" transform="translate(-286.917 -115.18)" fill="#dc815c"/>
        <path id="Caminho_1753" data-name="Caminho 1753" d="M382.06,172.533c.967-2.6,1.689-5.1,2.666-7.529a23.289,23.289,0,0,1,6.23-9.111c1.617-1.464,3.752-4.176,6.977-6.473h0c-4.283-1.026-7.19-3.162-9.151-3.241a42.388,42.388,0,0,0-4.733.1,16.215,16.215,0,0,1-6.019,6.169c3.021,3.64,2.789,15.81,3.935,20.325l0,.023C382,172.7,382.03,172.619,382.06,172.533Z" transform="translate(-285.071 -107.709)" fill="#d67963"/>
        <path id="Caminho_1754" data-name="Caminho 1754" d="M410.966,139.479a3.2,3.2,0,0,0,1.195-1.039c.065-.086.146-.158.2-.246a4.978,4.978,0,0,0,.443-.882,14.63,14.63,0,0,0-1.429-1.107c-.694-.457-1.517-.582-2.23-1.019-1.053-.645-2.058-1.4-3.065-2.114a.327.327,0,0,1-.132-.148.315.315,0,0,1,.046-.216,3.466,3.466,0,0,1,1.077-1.469,2.418,2.418,0,0,1,1.369-.339,2.259,2.259,0,0,1,.784.128c1.327.506,1.562,2.234,2.879,2.812.36.155.682.36,1.035.522a5.227,5.227,0,0,0-9.441-2.694,4.539,4.539,0,0,0-.907,1.71A33.9,33.9,0,0,1,410.966,139.479Z" transform="translate(-252.378 -129.581)" fill="#0075d5"/>
        <path id="Caminho_1755" data-name="Caminho 1755" d="M407.376,201.3a.857.857,0,0,0-1.712,0,198.5,198.5,0,0,0,10.9,65.65c.357,1.019,1.975.589,1.629-.45A208.2,208.2,0,0,1,407.376,201.3Z" transform="translate(-248.589 -35.993)" fill="#4a3333"/>
        <path id="Caminho_1756" data-name="Caminho 1756" d="M407.435,130.278a2.26,2.26,0,0,0-.784-.128,2.418,2.418,0,0,0-1.369.339,3.466,3.466,0,0,0-1.077,1.469.315.315,0,0,0-.046.216.327.327,0,0,0,.132.148c1.007.717,2.012,1.469,3.065,2.114.712.436,1.536.561,2.23,1.019a14.625,14.625,0,0,1,1.429,1.107c.357.309.71.622,1.056.923a104.978,104.978,0,0,1,8.522,8.42c4.684,5.564,5.794,7.724,7.724,20.276a76.32,76.32,0,0,1,.388,14.2c-.794,18.518-4.647,44.068.58,64.975a66.7,66.7,0,0,0,30.731,40.891,68.635,68.635,0,0,0,30.1,9.318c18.218,1.176,28.9-3.371,34.7-7.763.858-4.146,1.965-8.494,3.292-12.9a54.367,54.367,0,0,0-3.742-4.666,4.026,4.026,0,0,1-.55.722c-3.255,3.74-20.926,19.754-46.028,10.8a55.363,55.363,0,0,1-7.954-3.568c-31.863-17.381-37.657-47.313-35.726-72.418q.265-3.432.492-6.8c.343-5.049.606-9.979.71-14.71.364-16.281-1.16-30.195-7.961-38.355a45.478,45.478,0,0,0-16-12.292c-.353-.162-.675-.367-1.035-.522C409,132.512,408.762,130.784,407.435,130.278Z" transform="translate(-250.584 -128.83)" fill="#ea4550"/>
        <path id="Caminho_1757" data-name="Caminho 1757" d="M457.272,233.706a85.758,85.758,0,0,0-1.949,15.436c-.086,4.865.543,8.766,2.086,11.088A25.871,25.871,0,0,0,470.6,270.321c4.455-3.55,9.91-6.028,15.557-8.68-5.708-1.216-13.207-3.81-16.622-9.241a11.856,11.856,0,0,1-1.824-5.977c-.014-.371-.028-.742-.009-1.13a65.236,65.236,0,0,1,2.566-13.555c5.455-19.569,18.515-46.856,29.16-45.158,9.689,1.545,19.555,13.22,24.411,19.77.712-4.1,1.22-7.956,1.587-11.4-5.7-8.789-20.378-28.267-35.582-22.9-10.933,3.858-22.689,26.886-29.281,48.757C459.238,225.211,458.131,229.559,457.272,233.706Z" transform="translate(-183.039 -74.731)" fill="#0075d5"/>
        <path id="Caminho_1758" data-name="Caminho 1758" d="M509.82,227.671a41.063,41.063,0,0,1-5.61,7.761c-6.179,6.712-13.789,10.434-21.081,13.859-5.647,2.652-11.1,5.13-15.557,8.68a25.955,25.955,0,0,0-7.963,10.255c-1.638,3.826-2.388,9.374-1.8,15.944,1.021,11.323,6.053,25.71,17.576,39.731a31.686,31.686,0,0,1,3.882,5.977l.028.058c3.139,6.255,6.132,15.429.107,20.847a20.915,20.915,0,0,1-6.244,3.78,40.754,40.754,0,0,1-14.522,2.485l.97.977C468.3,366.714,485.2,364.3,485.2,364.3s1.768-.515,4.766-1.42a13.077,13.077,0,0,1,1.028-8.237c1.719-3.088,5.473-4.606,9.617-5.281l.028-.009c.58-.1,1.179-.174,1.768-.232a39.257,39.257,0,0,1,13.121,1.023,68.474,68.474,0,0,0,9.169,1.494c20.763-7.2,44.023-16.272,54.508-23.912-.065-.074-.153-.116-.2-.2a1.447,1.447,0,0,1,.562-1.97l.724-.406a63.6,63.6,0,0,0,.965-8.183,31.426,31.426,0,0,1-5.773-8.183l2.9-13.52a50.557,50.557,0,0,0,3.849,4.972c.237-2.643.55-5.4,1.012-8.3a104.716,104.716,0,0,1,3.831-15.984c4.847-14.933,15.023-26.835,24.5-35.306-3.142-.343-5.193-.42-5.193-.42l9.657-6.759s1.654-.039,4.29.074c.761-.561,1.5-1.1,2.218-1.6-26.6-22.5-58.6-37.193-91.353-48.559-2.849-.993-5.717-1.949-8.575-2.9-.065.682-.139,1.394-.216,2.116-.367,3.446-.875,7.306-1.587,11.4C518.919,204.873,515.611,217.335,509.82,227.671ZM496.6,256.653c3.893-1.278,10.327-5.643,13.434-2.715,4.7,4.429-14.137,27.107-24.293,21.139-5.51-3.237-6.023-10.958-.545-14.341,3.2-1.977,7.06-2.886,10.687-3.842C496.119,256.813,496.358,256.732,496.6,256.653Zm65.873,71.954c-7.1,3.125-13.991,6.325-21.794,7.186-8.074.889-16.074-.2-24.058-1.362-4.29-.622-2.466-7.135,1.8-6.517,6.787.984,13.629,1.863,20.494,1.288,7.218-.6,13.6-3.548,20.151-6.429C563,321.036,566.446,326.857,562.469,328.607Zm-34.385-90.65a17.426,17.426,0,0,1-.831,2.107,10.3,10.3,0,0,1-.388,1.55,3.38,3.38,0,1,1-6.517-1.8c.028-.084.051-.172.079-.255a1.033,1.033,0,0,1,0-.121c.107-.87.169-1.747.348-2.608a3,3,0,0,1,1.566-1.991,3.236,3.236,0,0,1,3.383-1.039A3.43,3.43,0,0,1,528.084,237.957Z" transform="translate(-180.008 -62.381)" fill="#008cff"/>
        <path id="Caminho_1759" data-name="Caminho 1759" d="M586.957,238.119a91.245,91.245,0,0,1,8.4-5.165c-40.555-47.313-109.112-57.935-109.112-57.935s0,4.162-.541,10.592c28.736,9.3,56.979,21.07,82,37.842A193.755,193.755,0,0,1,586.957,238.119Z" transform="translate(-142.917 -69.594)" fill="#008cff"/>
        <path id="Caminho_1760" data-name="Caminho 1760" d="M455.594,282.64c7.647-1.093,19.313-3.863,21.244-6.759,1.61-2.418-6.819-13.536-6.875-18.292-6.111-3.8-10.657-6.543-11.471-6.814-2.9-.965-21.244,26.072-21.244,28,0,.322,1.914,1.738,5.051,3.844a4.115,4.115,0,0,1,1.339-.179C447.731,282.482,451.378,283.241,455.594,282.64Z" transform="translate(-206.892 30.384)" fill="#333"/>
        <path id="Caminho_1761" data-name="Caminho 1761" d="M475.2,275.855a126.593,126.593,0,0,1-17.441.172c8.07,4.9,14.854,9,18.037,10.912C475.464,283.382,475.284,279.539,475.2,275.855Z" transform="translate(-179.813 63.529)" fill="#333"/>
        <path id="Caminho_1762" data-name="Caminho 1762" d="M585.154,245.136a25.111,25.111,0,0,1-12.279-4.012c-.515.455-1.037.926-1.575,1.445.162-.088.339-.188.494-.271a1.449,1.449,0,1,1,1.371,2.552c-.961.517-2.011,1.109-3.2,1.775-.773.434-1.6.9-2.5,1.4a1.452,1.452,0,0,1-.7.183,1.425,1.425,0,0,1-1.065-.541c-10.485,7.64-33.745,16.712-54.509,23.912-14.6,5.063-27.923,9.186-34.731,11.241-3,.9-4.766,1.42-4.766,1.42s8.206,2.413,5.311,33.311v.415a2.2,2.2,0,0,0-.116.52q-.087,1-.158,1.988l-.142.014c-.972,9.745-3.385,25.842-8.759,26.513,7.587,0,21.084-2.392,36.6-6.643,31.891-8.736,72.369-25.364,87.956-45.5,17.114-22.107,7.9-43.144,1.912-52.643C590.753,244.2,587.6,245.279,585.154,245.136ZM482.449,290.546a31.812,31.812,0,0,1,12.144-3.206c1.114-.093,1.1,1.622,0,1.729a44.71,44.71,0,0,0-11.506,2.993C482.207,292.391,481.62,290.978,482.449,290.546Zm14.214,13.831a24.21,24.21,0,0,0-9.592,2.253c-.974.443-1.835-.958-.854-1.459a23.549,23.549,0,0,1,10.446-2.543A.875.875,0,0,1,496.662,304.377ZM495,324.649c1.118-.13,1.1,1.617,0,1.749-2.357.281-4.715.578-7.077.833-1.125.121-1.1-1.61,0-1.752C490.277,325.18,492.639,324.923,495,324.649ZM490.006,336.4c-3.859.385-8.455,1.1-12.265.218-.671-.155-.719-1.283,0-1.4,3.956-.666,8.239-.2,12.265-.571C491.133,334.54,491.119,336.291,490.006,336.4Zm4.773,2.824c.392-4.251,1.974-8.313,2.9-12.476a113.825,113.825,0,0,0,2.52-30.392c-.262-5.021-.4-10.687-3.747-14.747-1.378-1.675.972-4.093,2.411-2.413,6.116,7.146,5.385,19.021,5.077,27.815a115.858,115.858,0,0,1-1.761,16.383c-.981,5.473-1.907,11.719-4.838,16.522C496.676,341,494.646,340.649,494.778,339.227Z" transform="translate(-166.509 17.677)" fill="#7f5454"/>
        <path id="Caminho_1763" data-name="Caminho 1763" d="M479.974,275.331c-5.685.564-10.534.958-14.7,1.216.084,3.684.265,7.527.6,11.083a52.54,52.54,0,0,0,1.657,9.761c.877,2.891,2.067,4.657,3.687,4.453C476.589,301.173,479,285.076,479.974,275.331Z" transform="translate(-169.889 62.837)" fill="#1a1a1a"/>
        <path id="Caminho_1764" data-name="Caminho 1764" d="M499.9,306.563c4.165-.258,9.014-.652,14.7-1.216l.142-.014q.07-.992.158-1.988a2.2,2.2,0,0,1,.116-.52v-.415c2.9-30.9-5.311-33.311-5.311-33.311s-16.9,2.413-25.589-6.276l-.97-.977c-7.856-7.917-9.84-10.536-14.478-8.68a1.868,1.868,0,0,0-1.081,1.986c.056,4.756,8.485,15.875,6.875,18.292-1.93,2.9-13.6,5.666-21.244,6.759-4.216.6-7.863-.158-11.956-.2a4.115,4.115,0,0,0-1.339.179c-.065.021-.151.033-.206.058-2.643,1.181,3.427,6.422,5.144,7.283a29.274,29.274,0,0,0,3.77,1.575c1.211.408,2.559.819,3.227,1.907a11.607,11.607,0,0,1,.761,2.292c.7,1.993,2.552,2.84,4.459,3.316,3.865.967,5.8-.965,7.726,1.933s4.828,2.9,7.726,4.828c1.615,1.077,2.636,2.754,9.93,3.357A126.6,126.6,0,0,0,499.9,306.563Z" transform="translate(-204.509 32.822)" fill="#f4a07f"/>
        <path id="Caminho_1765" data-name="Caminho 1765" d="M511.3,247.64a1.452,1.452,0,0,0,.7-.183c.9-.5,1.724-.968,2.5-1.4,1.186-.666,2.237-1.258,3.2-1.775a1.449,1.449,0,1,0-1.371-2.552c-.156.084-.332.183-.494.271-.845.462-1.742.963-2.754,1.534l-1.759.986-.724.406a1.448,1.448,0,0,0-.562,1.97c.049.088.137.13.2.2A1.426,1.426,0,0,0,511.3,247.64Z" transform="translate(-111.041 18.247)" fill="#4a3333"/>
        <path id="Caminho_1766" data-name="Caminho 1766" d="M486.848,302.055a115.867,115.867,0,0,0,1.761-16.383c.309-8.794,1.039-20.668-5.077-27.815-1.438-1.68-3.789.738-2.411,2.413,3.346,4.06,3.485,9.726,3.747,14.747a113.819,113.819,0,0,1-2.52,30.392c-.923,4.162-2.506,8.225-2.9,12.476-.132,1.422,1.9,1.777,2.559.691C484.941,313.774,485.867,307.528,486.848,302.055Z" transform="translate(-151.183 39.018)" fill="#4a3333"/>
        <path id="Caminho_1767" data-name="Caminho 1767" d="M475,265.767a44.711,44.711,0,0,1,11.506-2.993c1.1-.107,1.114-1.821,0-1.729a31.812,31.812,0,0,0-12.144,3.207C473.532,264.683,474.119,266.1,475,265.767Z" transform="translate(-158.421 43.972)" fill="#4a3333"/>
        <path id="Caminho_1768" data-name="Caminho 1768" d="M486.45,267.632A23.55,23.55,0,0,0,476,270.175c-.981.5-.121,1.9.854,1.459a24.21,24.21,0,0,1,9.592-2.253A.875.875,0,0,0,486.45,267.632Z" transform="translate(-156.297 52.673)" fill="#4a3333"/>
        <path id="Caminho_1769" data-name="Caminho 1769" d="M484.666,281.435c-4.026.371-8.309-.1-12.264.571-.719.121-.671,1.248,0,1.4,3.81.886,8.406.167,12.264-.218C485.78,283.08,485.794,281.328,484.666,281.435Z" transform="translate(-161.17 70.889)" fill="#4a3333"/>
        <path id="Caminho_1770" data-name="Caminho 1770" d="M476.967,279.709c2.362-.255,4.719-.552,7.077-.833,1.1-.132,1.118-1.879,0-1.749-2.36.274-4.722.531-7.077.831C475.872,278.1,475.842,279.83,476.967,279.709Z" transform="translate(-155.554 65.199)" fill="#4a3333"/>
        <path id="Caminho_1771" data-name="Caminho 1771" d="M548.967,203.322l-9.657,6.759s2.051.077,5.193.42c8.063.882,23.316,3.524,29.569,11.167,8.689,10.622-21.241,48.279-34.761,56.97a12.053,12.053,0,0,1-6.984,2c-6.861-.19-13.274-6.072-17.169-10.543a50.55,50.55,0,0,1-3.849-4.972l-2.9,13.52a31.425,31.425,0,0,0,5.773,8.183,28.927,28.927,0,0,0,5.123,4.218,25.11,25.11,0,0,0,12.279,4.012c2.45.144,5.6-.937,9.153-2.914,20.255-11.262,54-52.253,50.713-69.5-3.067-16.1-28.035-18.805-38.2-19.237C550.621,203.282,548.967,203.322,548.967,203.322Z" transform="translate(-112.941 -32.238)" fill="#0075d5"/>
        <path id="Caminho_1772" data-name="Caminho 1772" d="M585.555,233.125c.522-.357,1.014-.705,1.506-1.033a193.742,193.742,0,0,0-19.253-14.666c-25.019-16.773-53.262-28.543-82-37.842-.049.675-.116,1.371-.183,2.086,2.859.947,5.726,1.9,8.575,2.9C526.954,195.932,558.952,210.628,585.555,233.125Z" transform="translate(-143.022 -63.568)" fill="#00579e"/>
        <path id="Caminho_1773" data-name="Caminho 1773" d="M365.318,241.54c-10.61-3.613-27.344-10.715-22.912-25.1a1.8,1.8,0,0,0-3.424-1.077c-5.545,16.469,12.826,25.35,25.29,29.5C366.4,245.575,367.443,242.262,365.318,241.54Z" transform="translate(-337.965 -17.927)" fill="#6c4e4e"/>
        <path id="Caminho_1774" data-name="Caminho 1774" d="M472.239,233.846c10.156,5.968,28.993-16.71,24.292-21.139-3.107-2.928-9.541,1.436-13.434,2.715-.239.079-.478.16-.717.241-3.626.956-7.487,1.865-10.687,3.842C466.216,222.887,466.729,230.609,472.239,233.846Z" transform="translate(-166.509 -21.149)" fill="#fff"/>
        <path id="Caminho_1775" data-name="Caminho 1775" d="M486.732,204.583a3,3,0,0,0-1.566,1.991c-.179.861-.241,1.738-.348,2.608a1.047,1.047,0,0,0,0,.121c-.028.084-.051.172-.079.255a3.38,3.38,0,1,0,6.517,1.8,10.307,10.307,0,0,0,.388-1.55,17.424,17.424,0,0,0,.831-2.107,3.43,3.43,0,0,0-2.36-4.155A3.236,3.236,0,0,0,486.732,204.583Z" transform="translate(-144.398 -32.123)" fill="#fff"/>
        <path id="Caminho_1776" data-name="Caminho 1776" d="M526.877,241.991c-6.548,2.882-12.933,5.828-20.151,6.429-6.865.575-13.708-.3-20.494-1.288-4.262-.617-6.086,5.9-1.8,6.517,7.984,1.158,15.984,2.251,24.058,1.362,7.8-.861,14.7-4.06,21.794-7.186C534.265,246.077,530.822,240.255,526.877,241.991Z" transform="translate(-147.827 18.4)" fill="#00579e"/>
        <path id="Caminho_1777" data-name="Caminho 1777" d="M402.929,157.15a1.969,1.969,0,0,0,2.645.7c3.6-2.376,3.265-6.413,3.179-10.285-.128-5.6-.388-11.181-.7-16.761a23.531,23.531,0,0,0-10.118-1c0,1.652.114,3.332.172,4.914C398.391,142.386,398.671,150.5,402.929,157.15Z" transform="translate(-258.789 -129.502)" fill="#fff"/>
        <path id="Caminho_1778" data-name="Caminho 1778" d="M395.97,147.514c.613,1.954,3.856,1.471,3.747-.647-.021-.4-.141-6.329-3.385-5.794a1.89,1.89,0,0,0-1.4,1.856,7.983,7.983,0,0,0,.833,4.306A1.547,1.547,0,0,0,395.97,147.514Z" transform="translate(-262.788 -114.454)" fill="#fff"/>
        <path id="Caminho_1779" data-name="Caminho 1779" d="M652.964,316.459c-19.831-.053-40.956-.014-62.364.025l-5.717.009h-.394l-3.9.007c-9.4.014-18.828.026-28.19.026-27.555,0-53.566-.037-76.963.046-65.754.227-110.683,1.4-109.736,7.023.582,3.473,44.485,5.026,108.4,5.622,24.541.227,52.021.316,81.147.316,7.821,0,15.671,0,23.5-.009l3.9,0c24.961-.03,49.638-.109,72.492-.3,64.926-.538,115.121-1.961,115.124-5.627C770.266,317.837,718.753,316.633,652.964,316.459Z" transform="translate(-301.37 117.1)" fill="#867897"/>
      </g>
    </g>
  </g>
</svg>
